…
There we have it! It's to see that Asia had the highest gdpPercap at 113523.13 and Africa had the lowest gdpPercap at 241.17.

Let's double check to see if these values are what we are looking for:

``` r
gapminder %>% 
#Let's just look at Asia's data using filter  
  filter(continent == "Asia") %>% 
#Arrange the data from lowest gdpPercap to highest  
  arrange(gdpPercap)
```

    ## # A tibble: 396 x 6
    ##    country  continent  year lifeExp       pop gdpPercap
    ##    <fct>    <fct>     <int>   <dbl>     <int>     <dbl>
    ##  1 Myanmar  Asia       1952    36.3  20092996      331 
    ##  2 Myanmar  Asia       1992    59.3  40546538      347 
    ##  3 Myanmar  Asia       1967    49.4  25870271      349 
    ##  4 Myanmar  Asia       1957    41.9  21731844      350 
    ##  5 Myanmar  Asia       1972    53.1  28466390      357 
    ##  6 Cambodia Asia       1952    39.4   4693836      368.
    ##  7 Myanmar  Asia       1977    56.1  31528087      371 
    ##  8 Myanmar  Asia       1987    58.3  38028578      385 
    ##  9 Myanmar  Asia       1962    45.1  23634436      388 
    ## 10 China    Asia       1952    44   556263527      400.
    ## # ... with 386 more rows
…
